Languages;Writing Hand;Shoe Size;Length;Blood Type;Resus Factor;Siblings;Internet Purchase;Mobile Devices;Leisure;Hours Math;Importace AI Study;Antwerp Address;Travel Distance;Travel Time;Driver License;Smoker;Fruit;Favorite Fruit;OS;App;Biden;Class Mascot;Study Taks
4;Right;48,5;207;Unknown;Unknown;3;Yes;10;Internet/Social Media;3;Little importance;Yes;30;70;No;Yes;1 or less;1=Strawberry,2=Banana,3=Pineapple,4=Apple,5=Cherry,6=Melon,7=Orange,8=Plum,9=Pear,10=Kiwi;Windows;Social Netwerk App;2;1=Fox,2=Brown Bear,3=Otter,4=Beaver,5=Panther,6=Cougar,7=Wolf,8=Badger,9=Bison,10=Raccoon;26-30 hours
2;Right;43;176;B;+;2;Yes;2;Internet/Social Media;4;Moderate importance;Yes;1,7;8;No;No;1 or less;1=Cherry,2=Strawberry,3=Kiwi,4=Banana,5=Plum,6=Orange,7=Apple,8=Pear,9=Melon,10=Pineapple;Linux;GPS App;4;1=Fox,2=Otter,3=Cougar,4=Beaver,5=Raccoon,6=Wolf,7=Brown Bear,8=Bison,9=Panther,10=Badger;16-20 hours
2;Right;46;173;O;+;1;Yes;2;Watching movie/TV series;Too many to count;Extreemly important;Yes;7;20;Yes;No;2;1=Pineapple,2=Apple,3=Banana,4=Kiwi,5=Melon,6=Orange,7=Cherry,8=Pear,9=Plum,10=Strawberry;Windows;Public Transport App;4;1=Cougar,2=Otter,3=Raccoon,4=Badger,5=Beaver,6=Fox,7=Wolf,8=Brown Bear,9=Bison,10=Panther;21-25 hours
2;Right;44;175;O;-;3;Yes;3;Watching movie/TV series;150;Moderate importance;Yes;1;2;Yes;No;2;1=Orange,2=Strawberry,3=Apple,4=Kiwi,5=Pear,6=Pineapple,7=Banana,8=Cherry,9=Plum,10=Melon;iOS;GPS App;4;1=Panther,2=Wolf,3=Brown Bear,4=Badger,5=Fox,6=Cougar,7=Raccoon,8=Beaver,9=Otter,10=Bison;21-25 hours
3;Right;43;175;AB;+;0;Yes;3;Dancing;None;Not at all;Yes;5;25;No;Yes;1 or less;1=Orange,2=Pineapple,3=Apple,4=Cherry,5=Kiwi,6=Melon,7=Pear,8=Orange,9=Strawberry,10=Banana;Windows;Banking Operations App;4;1=Beaver,2=Wolf,3=Raccoon,4=Badger,5=Bison,6=Otter,7=Fox,8=Cougar,9=Panther,10=Brown Bear;11-15 hours
3;Right;40;170;Unknown;Unknown;5;Yes;3;Watching movie/TV series;0;Moderate importance;Yes;1,1;17;No;No;1 or less;1=Orange,2=Banana,3=Apple,4=Kiwi,5=Pineapple,6=Strawberry,7=Melon,8=Pear,9=Plum,10=Cherry;Windows;Browser App;4;1=Fox,2=Otter,3=Wolf,4=Brown Bear,5=Bison,6=Raccoon,7=Panther,8=Cougar,9=Beaver,10=Badger;26-30 hours
2;Right;43;183;AB;+;2;Yes;3;Other;10week/time;Moderate importance;Yes;4,5;17;Yes;No;2;1=Pineapple,2=Strawberry,3=Banana,4=Cherry,5=Apple,6=Kiwi,7=Orange,8=Melon,9=Pear,10=Plum;Other;Browser App;4;1=Bison,2=Cougar,3=Panther,4=Brown Bear,5=Raccoon,6=Otter,7=Fox,8=Beaver,9=Badger,10=Wolf;21-25 hours
3;Right;36;158;Unknown;Unknown;0;Yes;2;Dancing;12;Extreemly important;No;58,9;60;Yes;Yes;1 or less;1=Banana,2=Cherry,3=Melon,4=Pear,5=Orange,6=Strawberry,7=Apple,8=Pineapple,9=Kiwi,10=Plum;Windows;Social Netwerk App;4;1=Panther,2=Cougar,3=Otter,4=Fox,5=Brown Bear,6=Wolf,7=Raccoon,8=Beaver,9=Bison,10=Badger;21-25 hours
3;Right;43;178;O;+;3;Yes;5;Gaming;12;Moderate importance;Yes;15;30;No;No;2;1=Apple,2=Banana,3=Orange,4=Melon,5=Strawberry,6=Plum,7=Pineapple,8=Cherry,9=Pear,10=Kiwi;Windows;Browser App;8;1=Wolf,2=Fox,3=Beaver,4=Badger,5=Brown Bear,6=Raccoon,7=Otter,8=Bison,9=Cougar,10=Panther;21-25 hours
4;Right;47,5;192;O;+;3;Yes;2;Gaming;6,5;Moderate importance;No;48;92;No;No;1 or less;1=Strawberry,2=Banana,3=Kiwi,4=Orange,5=Apple,6=Plum,7=Cherry,8=Pear,9=Melon,10=Pineapple;Windows;Public Transport App;4;1=Wolf,2=Fox,3=Beaver,4=Badger,5=Brown Bear,6=Raccoon,7=Otter,8=Bison,9=Cougar,10=Panther;26-30 hours
5;Right;43;189;O;+;1;Yes;3;Internet/Social Media;7;Moderate importance;Yes;4;25;Yes;No;4;1=Orange,2=Strawberry,3=Cherry,4=Melon,5=Apple,6=Pineapple,7=Kiwi,8=Pear,9=Plum,10=Banana;Windows;Browser App;4;1=Otter,2=Raccoon,3=Bison,4=Badger,5=Beaver,6=Fox,7=Brown Bear,8=Wolf,9=Panther,10=Cougar;11-15 hours
2;Right;41;180;Unknown;Unknown;3;No;2;Other;150;Extreemly important;Yes;6;40;Yes;No;1 or less;1=Strawberry,2=Pineapple,3=Apple,4=Banana,5=Cherry,6=Kiwi,7=Melon,8=Pear,9=Plum,10=Orange;Linux;GPS App;8;1=Beaver,2=Panther,3=Cougar,4=Fox,5=Wolf,6=Badger,7=Bison,8=Raccoon,9=Otter,10=Brown Bear;16-20 hours
4;Right;40;170;O;+;4;Yes;2;Watching movie/TV series;6;Great importance;Yes;15;30;No;No;1 or less;1=Orange,2=Kiwi,3=Cherry,4=Pineapple,5=Melon,6=Pear,7=Plum,8=Banana,9=Strawberry,10=Apple;iOS;Book reader App;8;1=Panther,2=Cougar,3=Fox,4=Wolf,5=Brown Bear,6=Beaver,7=Badger,8=Bison,9=Raccoon,10=Otter;16-20 hours
2;Right;42;176;B;+;3;Yes;2;Watching movie/TV series;I don't know;Great importance;Yes;1,6;21;No;Yes;2;1=Pineapple,2=Apple,3=Melon,4=Orange,5=Banana,6=Plum,7=Strawberry,8=Cherry,9=Kiwi,10=Cherry;Windows;Public Transport App;8;1=Panther,2=Wolf,3=Cougar,4=Bison,5=Fox,6=Brown Bear,7=Otter,8=Beaver,9=Badger,10=Raccoon;16-20 hours
4;Right;NA;180;Unknown;Unknown;2;Yes;NA;Gaming;;Extreemly important;Yes;2;10;No;;2;1=Banana,2=Orange,3=Apple,4=Pineapple,5=Kiwi,6=Melon,7=Strawberry,8=Cherry,9=Melon,10=Plum;Windows;Browser App;8;1=Brown Bear,2=Wolf,3=Panther,4=Cougar,5=Fox,6=Bison,7=Beaver,8=Badger,9=Otter,10=Raccoon;26-30 hours
2;Right;40;150;O;+;4;No;2;Watching movie/TV series;310;Great importance;Yes;3,9;20;No;No;1 or less;1=Banana,2=Orange,3=Melon,4=Pineapple,5=Apple,6=Strawberry,7=Pear,8=Kiwi,9=Cherry,10=Plum;Windows;Brain Puzzle App;3;1=Otter,2=Fox,3=Brown Bear,4=Beaver,5=Badger,6=Bison,7=Raccoon,8=Wolf,9=Cougar,10=Panther;26-30 hours
5;Right;40;170;B;+;0;Yes;2;Gaming;0;Moderate importance;Yes;6;30;No;No;4;1=Cherry,2=Kiwi,3=Pear,4=Orange,5=Plum,6=Pineapple,7=Apple,8=Strawberry,9=Banana,10=Melon;Windows;Browser App;4;1=Beaver,2=Brown Bear,3=Panther,4=Cougar,5=Fox,6=Fox,7=Wolf,8=Raccoon,9=Otter,10=Bison;36-40 hours
2;Right;38;157;B;Unknown;1;Yes;2;Dancing;100;Moderate importance;Yes;6;20;No;No;1 or less;1=Strawberry,2=Kiwi,3=Banana,4=Orange,5=Pineapple,6=Cherry,7=Apple,8=Melon,9=Pear,10=Plum;iOS;Social Netwerk App;4;1=Beaver,2=Brown Bear,3=Panther,4=Cougar,5=Fox,6=Wolf,7=Badger,8=Bison,9=Raccoon,10=Otter;31-35 hours
3;Right;41;170;Unknown;Unknown;2;Yes;2;Music (play/listen);;Extreemly important;Yes;9;25;No;No;1 or less;1=Pineapple,2=Strawberry,3=Banana,4=Orange,5=Melon,6=Apple,7=Kiwi,8=Cherry,9=Pear,10=Plum;Windows;Banking Operations App;4;1=Wolf,2=Brown Bear,3=Beaver,4=Badger,5=Bison,6=Raccoon,7=Otter,8=Panther,9=Cougar,10=Fox;21-25 hours
2;Right;47,5;187;Unknown;Unknown;1;Yes;3;Sport (practicing/supporting);80;Moderate importance;Yes;5;25;No;No;1 or less;1=Strawberry,2=Banana,3=Pineapple,4=Apple,5=Cherry,6=Orange,7=Plum,8=Melon,9=Pear,10=Kiwi;iOS;Social Netwerk App;1;1=Panther,2=Cougar,3=Fox,4=Wolf,5=Brown Bear,6=Beaver,7=Badger,8=Bison,9=Raccoon,10=Otter;<= 10 hours
4;Right;40;170;Unknown;Unknown;0;Yes;3;Gaming;3 hours per week;Great importance;Yes;1,9;10;No;No;1 or less;1=Banana,2=Orange,3=Melon,4=Cherry,5=Pear,6=Strawberry,7=Apple,8=Kiwi,9=Pineapple,10=Plum;iOS;Browser App;5;1=Raccoon,2=Beaver,3=Wolf,4=Fox,5=Brown Bear,6=Otter,7=Bison,8=Panther,9=Badger,10=Cougar;21-25 hours
