Date;Dag;Server1;Server2;Server3;Server4;Server5
1/09/2014;1;0,4712;0,1011;0,3798;0,1056;0,0040
2/09/2014;2;0,4915;0,0790;0,4346;0,0972;0,0095
3/09/2014;3;0,4583;0,0947;0,4124;0,0792;0,0038
4/09/2014;4;0,4948;0,0929;0,3910;0,0959;0,0039
5/09/2014;5;0,5220;0,0892;0,3766;0,0976;0,0039
6/09/2014;6;0,3969;0,0711;0,3288;0,0484;0,0043
7/09/2014;7;0,3752;0,0653;0,3300;0,0359;0,0039
8/09/2014;8;0,4718;0,0964;0,3844;0,0967;0,0038
9/09/2014;9;0,4566;0,0917;0,3215;0,0912;0,0090
10/09/2014;10;0,4205;0,0939;0,3130;0,0771;0,0138
11/09/2014;11;0,4431;0,0902;0,3287;0,0916;0,0215
12/09/2014;12;0,4589;0,0849;0,3178;0,0968;0,0247
13/09/2014;13;0,2979;0,0703;0,2338;0,0506;0,0252
14/09/2014;14;0,2858;0,0610;0,1911;0,0371;0,0252
15/09/2014;15;0,4478;0,0912;0,3151;0,0990;0,0251
16/09/2014;16;0,4331;0,0987;0,3271;0,0965;0,0272
17/09/2014;17;0,4266;0,0870;0,3153;0,0759;0,0244
18/09/2014;18;0,4129;0,0885;0,3227;0,0886;0,0244
19/09/2014;19;0,4289;0,0845;0,3148;0,0945;0,0265
20/09/2014;20;0,2822;0,0692;0,2301;0,0485;0,0275
21/09/2014;21;0,2762;0,0431;0,1354;0,0215;0,0139
22/09/2014;22;0,4245;0,1100;0,2350;0,0833;0,0326
23/09/2014;23;0,4305;0,1025;0,2462;0,0795;0,0336
24/09/2014;24;0,4300;0,1044;0,2914;0,0692;0,0332
25/09/2014;25;0,4443;0,1005;0,2708;0,0802;0,0329
26/09/2014;26;0,4171;0,1010;0,2863;0,0883;0,0336
27/09/2014;27;0,2879;0,0834;0,2027;0,0484;0,0335
28/09/2014;28;0,3500;0,0752;0,1535;0,0357;0,0334
29/09/2014;29;0,5936;0,1225;0,3458;0,0859;0,0383
30/09/2014;30;0,6194;0,1219;0,3260;0,0865;0,0384
1/10/2014;31;0,6771;0,1103;0,1492;0,0757;0,0376
2/10/2014;32;0,6719;0,1168;0,1804;0,0900;0,0385
3/10/2014;33;0,6227;0,1150;0,1665;0,0938;0,0369
4/10/2014;34;0,5359;0,0898;0,2822;0,0461;0,0360
5/10/2014;35;0,3983;0,0943;0,1156;0,0349;0,0345
6/10/2014;36;0,5812;0,1358;0,1511;0,0883;0,0387
7/10/2014;37;0,5799;0,1411;0,1821;0,0866;0,0401
8/10/2014;38;0,5250;0,1299;0,1398;0,0720;0,0382
9/10/2014;39;0,5311;0,1319;0,1420;0,0846;0,0391
10/10/2014;40;0,4811;0,1054;0,1438;0,0813;0,0275
11/10/2014;41;0,3631;0,0688;0,1223;0,0274;0,0143
12/10/2014;42;0,3314;0,0621;0,1093;0,0167;0,0132
13/10/2014;43;0,5171;0,0995;0,1405;0,0678;0,0134
14/10/2014;44;0,5521;0,0956;0,1507;0,0617;0,0136
15/10/2014;45;0,4703;0,0903;0,1341;0,0527;0,0146
16/10/2014;46;0,4992;0,0900;0,1785;0,0670;0,0132
17/10/2014;47;0,5194;0,0847;0,1641;0,0784;0,0141
18/10/2014;48;0,4141;0,0603;0,1068;0,0459;0,0138
19/10/2014;49;0,3870;0,0608;0,1166;0,0352;0,0107
20/10/2014;50;0,4918;0,0972;0,1491;0,0780;0,0114
21/10/2014;51;0,4910;0,0944;0,1450;0,0599;0,0115
22/10/2014;52;0,4680;0,0901;0,1463;0,0540;0,0114
23/10/2014;53;0,4675;0,0884;0,1418;0,0686;0,0117
24/10/2014;54;0,4815;0,0925;0,1502;0,0729;0,0111
25/10/2014;55;0,3428;0,0662;0,1170;0,0292;0,0109
26/10/2014;56;0,3878;0,0555;0,1172;0,0193;0,0106
27/10/2014;57;0,5217;0,0933;0,1694;0,0727;0,0117
28/10/2014;58;0,5340;0,0931;0,1667;0,0653;0,0120
29/10/2014;59;0,4811;0,0978;0,1560;0,0548;0,0118
30/10/2014;60;0,5521;0,1002;0,1581;0,0743;0,0122
31/10/2014;61;0,5445;0,0971;0,2018;0,0776;0,0121
1/11/2014;62;0,5106;0,0637;0,2371;0,0194;0,0135
2/11/2014;63;0,3882;0,0753;0,1467;0,0186;0,0132
3/11/2014;64;0,5912;0,1126;0,2043;0,0714;0,0126
4/11/2014;65;0,6354;0,1127;0,2546;0,0712;0,0129
5/11/2014;66;0,5776;0,1016;0,1873;0,0568;0,0135
6/11/2014;67;0,6673;0,0985;0,1703;0,0705;0,0124
7/11/2014;68;0,5996;0,0973;0,1648;0,0745;0,0128
8/11/2014;69;0,3884;0,0664;0,1403;0,0291;0,0121
9/11/2014;70;0,3824;0,0519;0,1117;0,0175;0,0118
10/11/2014;71;0,4606;0,0826;0,1508;0,0419;0,0127
11/11/2014;72;0,3276;0,0679;0,1230;0,0171;0,0128
12/11/2014;73;0,4767;0,1036;0,1494;0,0675;0,0135
13/11/2014;74;0,5269;0,0997;0,1632;0,0761;0,0136
14/11/2014;75;0,5137;0,0947;0,1685;0,0768;0,0130
15/11/2014;76;0,3321;0,0704;0,1664;0,0290;0,0131
16/11/2014;77;0,3514;0,0648;0,1259;0,0173;0,0114
17/11/2014;78;0,5087;0,1007;0,1552;0,0735;0,0119
18/11/2014;79;0,4745;0,0972;0,1568;0,0672;0,0124
19/11/2014;80;0,4290;0,0931;0,1411;0,0576;0,0136
20/11/2014;81;0,4849;0,0920;0,1620;0,0691;0,0123
21/11/2014;82;0,4877;0,0911;0,1526;0,0753;0,0120
22/11/2014;83;0,3306;0,0662;0,1622;0,0284;0,0117
23/11/2014;84;0,3360;0,0640;0,1262;0,0172;0,0109
24/11/2014;85;0,4735;0,0999;0,1776;0,0698;0,0121
25/11/2014;86;0,4845;0,0974;0,1603;0,0654;0,0115
26/11/2014;87;0,4860;0,1046;0,1616;0,0549;0,0122
27/11/2014;88;0,5040;0,1092;0,1923;0,0727;0,0114
28/11/2014;89;0,4849;0,1087;0,1894;0,0850;0,0125
29/11/2014;90;0,4225;0,0769;0,2326;0,0307;0,0133
30/11/2014;91;0,3614;0,0654;0,0996;0,0184;0,0136
