digraph ID3_Tree {
"0" [shape=box, style=filled, label="weight
", weight=1]
"1" [shape=box, style=filled, label="hair length
", weight=2]
0 -> 1 [ label = "<=165.00"];
"2" [shape=box, style=filled, label="M
(1)
", weight=3]
1 -> 2 [ label = "<=3.00"];
"3" [shape=box, style=filled, label="F
(4)
", weight=3]
1 -> 3 [ label = ">3.00"];
"4" [shape=box, style=filled, label="M
(4)
", weight=2]
0 -> 4 [ label = ">165.00"];
{rank=same; 0;};
{rank=same; 1;4;};
{rank=same; 2;3;};
}